[
    {
        "health": "yellow",
        "status": "open",
        "index": "git_grimoirelab_170908_enriched_170908b",
        "uuid": "r5kxqZA3SHu7k55-kCCk-Q",
        "pri": "5",
        "rep": "1",
        "docs.count": "23953",
        "docs.deleted": "4216",
        "store.size": "63.6mb",
        "pri.store.size": "63.6mb"
    },
    {
        "health": "yellow",
        "status": "open",
        "index": "github_grimoirelab_170908_enriched_170908",
        "uuid": "EVlPPHVaSUiK1JE-u8N7Lg",
        "pri": "5",
        "rep": "1",
        "docs.count": "495",
        "docs.deleted": "14",
        "store.size": "1.5mb",
        "pri.store.size": "1.5mb"
    },
    {
        "health": "yellow",
        "status": "open",
        "index": "git_grimoirelab_170908_enriched_170908",
        "uuid": "IcZgK3-OSoS9yoBkDruSng",
        "pri": "5",
        "rep": "1",
        "docs.count": "23426",
        "docs.deleted": "1011",
        "store.size": "50.4mb",
        "pri.store.size": "50.4mb"
    },
    {
        "health": "yellow",
        "status": "open",
        "index": "git_grimoirelab_171116_enriched_171116",
        "uuid": "1C476z_VTWyBeNRK7ASu0Q",
        "pri": "5",
        "rep": "1",
        "docs.count": "26078",
        "docs.deleted": "2622",
        "store.size": "65.6mb",
        "pri.store.size": "65.6mb"
    },
    {
        "health": "yellow",
        "status": "open",
        "index": "github",
        "uuid": "a-Fgu5AETPWiNmS91LuLUw",
        "pri": "5",
        "rep": "1",
        "docs.count": "29",
        "docs.deleted": "0",
        "store.size": "27.6kb",
        "pri.store.size": "27.6kb"
    },
    {
        "health": "yellow",
        "status": "open",
        "index": "git_grimoirelab_171229_enriched_171229",
        "uuid": "EyFlS7QdSPeWetw9sowTdw",
        "pri": "5",
        "rep": "1",
        "docs.count": "26147",
        "docs.deleted": "3285",
        "store.size": "73.3mb",
        "pri.store.size": "73.3mb"
    },
    {
        "health": "yellow",
        "status": "open",
        "index": "pipermail_grimoirelab_170908__enriched_170908b",
        "uuid": "6ZB2YCYOT3KL8-w-Z614Uw",
        "pri": "5",
        "rep": "1",
        "docs.count": "44",
        "docs.deleted": "4",
        "store.size": "534kb",
        "pri.store.size": "534kb"
    },
    {
        "health": "yellow",
        "status": "open",
        "index": "pipermail_grimoirelab_170908__enriched_170908",
        "uuid": "iZTJIvKFQWu4X4PlHEl7aA",
        "pri": "5",
        "rep": "1",
        "docs.count": "6",
        "docs.deleted": "1",
        "store.size": "109.3kb",
        "pri.store.size": "109.3kb"
    },
    {
        "health": "yellow",
        "status": "open",
        "index": "github_grimoirelab_170908_enriched_170908b",
        "uuid": "CK1-M2T7S7CXUQ6PbM1O9g",
        "pri": "5",
        "rep": "1",
        "docs.count": "916",
        "docs.deleted": "23",
        "store.size": "2.4mb",
        "pri.store.size": "2.4mb"
    },
    {
        "health": "yellow",
        "status": "open",
        "index": ".kibana",
        "uuid": "BdLvt2uvSyKePLSUBzkNhQ",
        "pri": "1",
        "rep": "1",
        "docs.count": "197",
        "docs.deleted": "5",
        "store.size": "333.8kb",
        "pri.store.size": "333.8kb"
    }
]
